log|2022-8-06 10:12:42 SQLSTATE[HY000]: General error: 1105 XPATH syntax error: '\qzxzq2qkbxq'
log|2022-8-06 10:12:42 SQLSTATE[HY000]: General error: 1105 XPATH syntax error: '\qzxzqinformation_schemaqkbxq'
log|2022-8-06 10:12:42 SQLSTATE[HY000]: General error: 1105 XPATH syntax error: '\qzxzqnix2qkbxq'
log|2022-8-06 10:32:00 SQLSTATE[42000]: Syntax error or access violation: 1142 SELECT command denied to user 'myapp'@'172.18.0.4' for table 'user'
log|2022-8-06 10:32:00 SQLSTATE[42000]: Syntax error or access violation: 1142 SELECT command denied to user 'myapp'@'172.18.0.4' for table 'user'
log|2022-8-06 10:32:44 SQLSTATE[HY000]: General error: 1105 XPATH syntax error: '\qzxzq1qkbxq'
log|2022-8-06 10:32:45 SQLSTATE[HY000]: General error: 1105 XPATH syntax error: '\qzxzq'myapp'@'%'qkbxq'
log|2022-8-06 19:51:27 SQLSTATE[42000]: Syntax error or access violation: 1064 You have an error in your SQL syntax; check the manual that corresponds to your MySQL server version for the right syntax to use near ''name', 'id') VALUES (id, 5)' at line 1
log|2022-8-06 19:51:27 SQLSTATE[42000]: Syntax error or access violation: 1064 You have an error in your SQL syntax; check the manual that corresponds to your MySQL server version for the right syntax to use near ''name', 'id') VALUES (id, 5)' at line 1
log|2022-8-06 19:51:27 SQLSTATE[42000]: Syntax error or access violation: 1064 You have an error in your SQL syntax; check the manual that corresponds to your MySQL server version for the right syntax to use near ''name', 'id') VALUES (id, 5)' at line 1
log|2022-8-06 19:51:29 SQLSTATE[42000]: Syntax error or access violation: 1064 You have an error in your SQL syntax; check the manual that corresponds to your MySQL server version for the right syntax to use near ''name', 'id') VALUES (id, 5)' at line 1
log|2022-8-06 19:51:29 SQLSTATE[42000]: Syntax error or access violation: 1064 You have an error in your SQL syntax; check the manual that corresponds to your MySQL server version for the right syntax to use near ''name', 'id') VALUES (id, 5)' at line 1
log|2022-8-06 19:51:29 SQLSTATE[42000]: Syntax error or access violation: 1064 You have an error in your SQL syntax; check the manual that corresponds to your MySQL server version for the right syntax to use near ''name', 'id') VALUES (id, 5)' at line 1
log|2022-8-06 19:51:58 SQLSTATE[42000]: Syntax error or access violation: 1064 You have an error in your SQL syntax; check the manual that corresponds to your MySQL server version for the right syntax to use near ''name', 'id') VALUES (id, 5)' at line 1
log|2022-8-06 19:51:58 SQLSTATE[42000]: Syntax error or access violation: 1064 You have an error in your SQL syntax; check the manual that corresponds to your MySQL server version for the right syntax to use near ''name', 'id') VALUES (id, 5)' at line 1
log|2022-8-06 19:51:58 SQLSTATE[42000]: Syntax error or access violation: 1064 You have an error in your SQL syntax; check the manual that corresponds to your MySQL server version for the right syntax to use near ''name', 'id') VALUES (id, 5)' at line 1
log|2022-8-06 19:52:07 SQLSTATE[42000]: Syntax error or access violation: 1064 You have an error in your SQL syntax; check the manual that corresponds to your MySQL server version for the right syntax to use near ''name', 'id') VALUES (id, 5)' at line 1
log|2022-8-06 19:52:07 SQLSTATE[42000]: Syntax error or access violation: 1064 You have an error in your SQL syntax; check the manual that corresponds to your MySQL server version for the right syntax to use near ''name', 'id') VALUES (id, 5)' at line 1
log|2022-8-06 19:52:07 SQLSTATE[42000]: Syntax error or access violation: 1064 You have an error in your SQL syntax; check the manual that corresponds to your MySQL server version for the right syntax to use near ''name', 'id') VALUES (id, 5)' at line 1
log|2022-8-06 19:52:08 SQLSTATE[42000]: Syntax error or access violation: 1064 You have an error in your SQL syntax; check the manual that corresponds to your MySQL server version for the right syntax to use near ''name', 'id') VALUES (id, 5)' at line 1
log|2022-8-06 19:52:08 SQLSTATE[42000]: Syntax error or access violation: 1064 You have an error in your SQL syntax; check the manual that corresponds to your MySQL server version for the right syntax to use near ''name', 'id') VALUES (id, 5)' at line 1
log|2022-8-06 19:52:08 SQLSTATE[42000]: Syntax error or access violation: 1064 You have an error in your SQL syntax; check the manual that corresponds to your MySQL server version for the right syntax to use near ''name', 'id') VALUES (id, 5)' at line 1
log|2022-8-06 19:52:09 SQLSTATE[42000]: Syntax error or access violation: 1064 You have an error in your SQL syntax; check the manual that corresponds to your MySQL server version for the right syntax to use near ''name', 'id') VALUES (id, 5)' at line 1
log|2022-8-06 19:52:09 SQLSTATE[42000]: Syntax error or access violation: 1064 You have an error in your SQL syntax; check the manual that corresponds to your MySQL server version for the right syntax to use near ''name', 'id') VALUES (id, 5)' at line 1
log|2022-8-06 19:52:09 SQLSTATE[42000]: Syntax error or access violation: 1064 You have an error in your SQL syntax; check the manual that corresponds to your MySQL server version for the right syntax to use near ''name', 'id') VALUES (id, 5)' at line 1
log|2022-8-06 19:52:13 SQLSTATE[42000]: Syntax error or access violation: 1064 You have an error in your SQL syntax; check the manual that corresponds to your MySQL server version for the right syntax to use near ''name', 'id') VALUES (id, 5)' at line 1
log|2022-8-06 19:52:16 SQLSTATE[42000]: Syntax error or access violation: 1064 You have an error in your SQL syntax; check the manual that corresponds to your MySQL server version for the right syntax to use near ''name', 'id') VALUES (id, 5)' at line 1
log|2022-8-06 19:52:17 SQLSTATE[42000]: Syntax error or access violation: 1064 You have an error in your SQL syntax; check the manual that corresponds to your MySQL server version for the right syntax to use near ''name', 'id') VALUES (id, 5)' at line 1
log|2022-8-06 19:52:50 SQLSTATE[42000]: Syntax error or access violation: 1064 You have an error in your SQL syntax; check the manual that corresponds to your MySQL server version for the right syntax to use near ''name', 'id') VALUES ('id', '5')' at line 1
log|2022-8-06 19:52:50 SQLSTATE[42000]: Syntax error or access violation: 1064 You have an error in your SQL syntax; check the manual that corresponds to your MySQL server version for the right syntax to use near ''name', 'id') VALUES ('id', '5')' at line 1
log|2022-8-06 19:52:51 SQLSTATE[42000]: Syntax error or access violation: 1064 You have an error in your SQL syntax; check the manual that corresponds to your MySQL server version for the right syntax to use near ''name', 'id') VALUES ('id', '5')' at line 1
log|2022-8-06 19:52:53 SQLSTATE[42000]: Syntax error or access violation: 1064 You have an error in your SQL syntax; check the manual that corresponds to your MySQL server version for the right syntax to use near ''name', 'id') VALUES ('id', '5')' at line 1
log|2022-8-06 19:52:53 SQLSTATE[42000]: Syntax error or access violation: 1064 You have an error in your SQL syntax; check the manual that corresponds to your MySQL server version for the right syntax to use near ''name', 'id') VALUES ('id', '5')' at line 1
log|2022-8-06 19:52:54 SQLSTATE[42000]: Syntax error or access violation: 1064 You have an error in your SQL syntax; check the manual that corresponds to your MySQL server version for the right syntax to use near ''name', 'id') VALUES ('id', '5')' at line 1
log|2022-8-06 19:52:54 SQLSTATE[42000]: Syntax error or access violation: 1064 You have an error in your SQL syntax; check the manual that corresponds to your MySQL server version for the right syntax to use near ''name', 'id') VALUES ('id', '5')' at line 1
log|2022-8-06 19:55:41 SQLSTATE[42000]: Syntax error or access violation: 1064 You have an error in your SQL syntax; check the manual that corresponds to your MySQL server version for the right syntax to use near ''name', 'id') VALUES ('id', 5)' at line 1
log|2022-8-06 19:55:41 SQLSTATE[42000]: Syntax error or access violation: 1064 You have an error in your SQL syntax; check the manual that corresponds to your MySQL server version for the right syntax to use near ''name', 'id') VALUES ('id', 5)' at line 1
log|2022-8-06 19:55:42 SQLSTATE[42000]: Syntax error or access violation: 1064 You have an error in your SQL syntax; check the manual that corresponds to your MySQL server version for the right syntax to use near ''name', 'id') VALUES ('id', 5)' at line 1
